\contentsline {chapter}{\numberline {Chapter 1}Introduction}{1}% 
\contentsline {chapter}{\numberline {Chapter 2}Convergence and Bases on Banach Spaces}{3}% 
\contentsline {section}{\numberline {2.1}Banach, Operator and Dual Spaces}{3}% 
\contentsline {section}{\numberline {2.2}Topologies in Banach Spaces}{5}% 
\contentsline {section}{\numberline {2.3}Bases in Banach spaces}{5}% 
\contentsline {chapter}{\numberline {Chapter 3}Classical Harmonic Analysis}{9}% 
\contentsline {section}{\numberline {3.1}Harmonic Analysis on Locally Compact Abelian Groups}{9}% 
\contentsline {chapter}{\numberline {Chapter 4}Conclusion}{15}% 
\contentsline {chapter}{References}{16}% 
