\boolfalse {citerequest}\boolfalse {citetracker}\boolfalse {pagetracker}\boolfalse {backtracker}\relax 
\babel@toc {nil}{}
\defcounter {refsection}{0}\relax 
\contentsline {chapter}{\numberline {Chapter 1}Preliminaries}{1}{chapter.1}%
\defcounter {refsection}{0}\relax 
\contentsline {chapter}{\numberline {Chapter 2}Banach Algebras}{4}{chapter.2}%
\defcounter {refsection}{0}\relax 
\contentsline {chapter}{\numberline {Chapter 3}The Gelfand Mapping}{17}{chapter.3}%
\defcounter {refsection}{0}\relax 
\contentsline {chapter}{References}{27}{theorem.3.27}%
