\relax 
\providecommand\hyper@newdestlabel[2]{}
\providecommand\HyperFirstAtBeginDocument{\AtBeginDocument}
\HyperFirstAtBeginDocument{\ifx\hyper@anchor\@undefined
\global\let\oldcontentsline\contentsline
\gdef\contentsline#1#2#3#4{\oldcontentsline{#1}{#2}{#3}}
\global\let\oldnewlabel\newlabel
\gdef\newlabel#1#2{\newlabelxx{#1}#2}
\gdef\newlabelxx#1#2#3#4#5#6{\oldnewlabel{#1}{{#2}{#3}}}
\AtEndDocument{\ifx\hyper@anchor\@undefined
\let\contentsline\oldcontentsline
\let\newlabel\oldnewlabel
\fi}
\fi}
\global\let\hyper@last\relax 
\gdef\HyperFirstAtBeginDocument#1{#1}
\providecommand\HyField@AuxAddToFields[1]{}
\providecommand\HyField@AuxAddToCoFields[2]{}
\@nameuse{bbl@beforestart}
\abx@aux@refcontext{nty/global//global/global}
\@writefile{toc}{\boolfalse {citerequest}\boolfalse {citetracker}\boolfalse {pagetracker}\boolfalse {backtracker}\relax }
\@writefile{lof}{\boolfalse {citerequest}\boolfalse {citetracker}\boolfalse {pagetracker}\boolfalse {backtracker}\relax }
\@writefile{lot}{\boolfalse {citerequest}\boolfalse {citetracker}\boolfalse {pagetracker}\boolfalse {backtracker}\relax }
\babel@aux{nil}{}
\abx@aux@cite{simmons-topology}
\abx@aux@segm{0}{0}{simmons-topology}
\abx@aux@cite{simmons-topology}
\abx@aux@segm{0}{0}{simmons-topology}
\abx@aux@cite{simmons-topology}
\abx@aux@segm{0}{0}{simmons-topology}
\@writefile{toc}{\defcounter {refsection}{0}\relax }\@writefile{toc}{\contentsline {chapter}{\numberline {Chapter 1}Preliminaries}{1}{chapter.1}\protected@file@percent }
\@writefile{lof}{\defcounter {refsection}{0}\relax }\@writefile{lof}{\addvspace {10\p@ }}
\@writefile{lot}{\defcounter {refsection}{0}\relax }\@writefile{lot}{\addvspace {10\p@ }}
\newlabel{s-intro}{{1}{1}{Preliminaries}{chapter.1}{}}
\newlabel{s-intro@cref}{{[chapter][1][]1}{[1][1][]1}}
\newlabel{quotient of a banach space is a banach space}{{1.2}{1}{}{theorem.1.2}{}}
\newlabel{quotient of a banach space is a banach space@cref}{{[proposition][2][1]1.2}{[1][1][]1}}
\newlabel{Characterization of a continuous linear transformation}{{1.3}{1}{}{theorem.1.3}{}}
\newlabel{Characterization of a continuous linear transformation@cref}{{[proposition][3][1]1.3}{[1][1][]1}}
\abx@aux@cite{simmons-topology}
\abx@aux@segm{0}{0}{simmons-topology}
\abx@aux@cite{simmons-topology}
\abx@aux@segm{0}{0}{simmons-topology}
\newlabel{set of bouned linear transformation notation}{{1.8}{2}{}{theorem.1.8}{}}
\newlabel{set of bouned linear transformation notation@cref}{{[notation][8][1]1.8}{[1][2][]2}}
\newlabel{CX is an algebra}{{1.11}{2}{}{theorem.1.11}{}}
\newlabel{CX is an algebra@cref}{{[proposition][11][1]1.11}{[1][2][]2}}
\abx@aux@cite{simmons-topology}
\abx@aux@segm{0}{0}{simmons-topology}
\abx@aux@cite{simmons-topology}
\abx@aux@segm{0}{0}{simmons-topology}
\abx@aux@cite{simmons-topology}
\abx@aux@segm{0}{0}{simmons-topology}
\abx@aux@cite{simmons-topology}
\abx@aux@segm{0}{0}{simmons-topology}
\abx@aux@cite{simmons-topology}
\abx@aux@segm{0}{0}{simmons-topology}
\newlabel{S* is compact}{{1.17}{3}{}{theorem.1.17}{}}
\newlabel{S* is compact@cref}{{[proposition][17][1]1.17}{[1][3][]3}}
\newlabel{corrolary to Hahn-Banach}{{1.19}{3}{}{theorem.1.19}{}}
\newlabel{corrolary to Hahn-Banach@cref}{{[proposition][19][1]1.19}{[1][3][]3}}
\newlabel{corrolary to Banach-Steinhaus}{{1.20}{3}{}{theorem.1.20}{}}
\newlabel{corrolary to Banach-Steinhaus@cref}{{[proposition][20][1]1.20}{[1][3][]3}}
\newlabel{complex stone-weirestrass theorem}{{1.21}{3}{The complex Stone-Weierstrass theorem}{theorem.1.21}{}}
\newlabel{complex stone-weirestrass theorem@cref}{{[theorem][21][1]1.21}{[1][3][]3}}
\newlabel{weak topology on a subspace}{{1.22}{3}{}{theorem.1.22}{}}
\newlabel{weak topology on a subspace@cref}{{[proposition][22][1]1.22}{[1][3][]3}}
\abx@aux@cite{simmons-topology}
\abx@aux@segm{0}{0}{simmons-topology}
\@writefile{toc}{\defcounter {refsection}{0}\relax }\@writefile{toc}{\contentsline {chapter}{\numberline {Chapter 2}Banach Algebras}{4}{chapter.2}\protected@file@percent }
\@writefile{lof}{\defcounter {refsection}{0}\relax }\@writefile{lof}{\addvspace {10\p@ }}
\@writefile{lot}{\defcounter {refsection}{0}\relax }\@writefile{lot}{\addvspace {10\p@ }}
\newlabel{defintion of Banach Algebra}{{2.1}{4}{Banach algebra}{theorem.2.1}{}}
\newlabel{defintion of Banach Algebra@cref}{{[definition][1][2]2.1}{[1][4][]4}}
\newlabel{formula for invertible elements in a Banach algebra}{{2.5}{4}{}{theorem.2.5}{}}
\newlabel{formula for invertible elements in a Banach algebra@cref}{{[proposition][5][2]2.5}{[1][4][]4}}
\abx@aux@cite{simmons-topology}
\abx@aux@segm{0}{0}{simmons-topology}
\abx@aux@cite{simmons-topology}
\abx@aux@segm{0}{0}{simmons-topology}
\newlabel{invertible elements open set}{{2.6}{5}{}{theorem.2.6}{}}
\newlabel{invertible elements open set@cref}{{[proposition][6][2]2.6}{[1][5][]5}}
\newlabel{inverse mapping is continuous}{{2.7}{5}{}{theorem.2.7}{}}
\newlabel{inverse mapping is continuous@cref}{{[proposition][7][2]2.7}{[1][5][]5}}
\newlabel{inverse mapping is continuous equation}{{2.1}{5}{Banach Algebras}{equation.2.1}{}}
\newlabel{inverse mapping is continuous equation@cref}{{[equation][1][2]2.1}{[1][5][]5}}
\abx@aux@cite{simmons-topology}
\abx@aux@segm{0}{0}{simmons-topology}
\abx@aux@cite{simmons-topology}
\abx@aux@segm{0}{0}{simmons-topology}
\newlabel{Z contained in S}{{2.9}{7}{}{theorem.2.9}{}}
\newlabel{Z contained in S@cref}{{[proposition][9][2]2.9}{[1][7][]7}}
\newlabel{Top div zero contain in boundary}{{2.10}{7}{}{theorem.2.10}{}}
\newlabel{Top div zero contain in boundary@cref}{{[proposition][10][2]2.10}{[1][7][]7}}
\newlabel{spectrum lies in closed disk}{{2.13}{8}{}{theorem.2.13}{}}
\newlabel{spectrum lies in closed disk@cref}{{[remark][13][2]2.13}{[1][8][]8}}
\newlabel{Definition of resolvent set}{{2.14}{8}{Resolvent set}{theorem.2.14}{}}
\newlabel{Definition of resolvent set@cref}{{[definition][14][2]2.14}{[1][8][]8}}
\abx@aux@cite{simmons-topology}
\abx@aux@segm{0}{0}{simmons-topology}
\newlabel{spectrum is non-empty}{{2.16}{9}{}{theorem.2.16}{}}
\newlabel{spectrum is non-empty@cref}{{[proposition][16][2]2.16}{[1][9][]9}}
\abx@aux@cite{simmons-topology}
\abx@aux@segm{0}{0}{simmons-topology}
\abx@aux@cite{simmons-topology}
\abx@aux@segm{0}{0}{simmons-topology}
\newlabel{Banach division algebra is C}{{2.19}{10}{}{theorem.2.19}{}}
\newlabel{Banach division algebra is C@cref}{{[remark][19][2]2.19}{[1][10][]10}}
\abx@aux@cite{simmons-topology}
\abx@aux@segm{0}{0}{simmons-topology}
\abx@aux@cite{bachman-narici-functional-Analysis}
\abx@aux@segm{0}{0}{bachman-narici-functional-Analysis}
\abx@aux@cite{simmons-topology}
\abx@aux@segm{0}{0}{simmons-topology}
\abx@aux@cite{bachman-narici-functional-Analysis}
\abx@aux@segm{0}{0}{bachman-narici-functional-Analysis}
\newlabel{spectral mapping}{{2.21}{11}{}{theorem.2.21}{}}
\newlabel{spectral mapping@cref}{{[lemma][21][2]2.21}{[1][11][]11}}
\newlabel{spectral mapping eq1}{{2.2}{11}{Banach Algebras}{equation.2.2}{}}
\newlabel{spectral mapping eq1@cref}{{[equation][2][2]2.2}{[1][11][]11}}
\newlabel{Formula for the spectral radius}{{2.22}{11}{}{theorem.2.22}{}}
\newlabel{Formula for the spectral radius@cref}{{[proposition][22][2]2.22}{[1][11][]11}}
\newlabel{resolvent inverse formula}{{2.3}{12}{Banach Algebras}{equation.2.3}{}}
\newlabel{resolvent inverse formula@cref}{{[equation][3][2]2.3}{[1][12][]12}}
\newlabel{resolvent inverse formula after applying a functional}{{2.4}{12}{Banach Algebras}{equation.2.4}{}}
\newlabel{resolvent inverse formula after applying a functional@cref}{{[equation][4][2]2.4}{[1][12][]12}}
\abx@aux@cite{simmons-topology}
\abx@aux@segm{0}{0}{simmons-topology}
\abx@aux@cite{dummit-foote}
\abx@aux@segm{0}{0}{dummit-foote}
\newlabel{definition of ideal}{{2.23}{13}{Ideal}{theorem.2.23}{}}
\newlabel{definition of ideal@cref}{{[definition][23][2]2.23}{[1][13][]13}}
\newlabel{ring ideal equivalent to algebra ideal}{{2.24}{13}{}{theorem.2.24}{}}
\newlabel{ring ideal equivalent to algebra ideal@cref}{{[remark][24][2]2.24}{[1][13][]13}}
\newlabel{every ideal is contained in a maximal ideal}{{2.28}{13}{}{theorem.2.28}{}}
\newlabel{every ideal is contained in a maximal ideal@cref}{{[proposition][28][2]2.28}{[1][13][]13}}
\abx@aux@cite{simmons-topology}
\abx@aux@segm{0}{0}{simmons-topology}
\abx@aux@cite{simmons-topology}
\abx@aux@segm{0}{0}{simmons-topology}
\abx@aux@cite{simmons-topology}
\abx@aux@segm{0}{0}{simmons-topology}
\abx@aux@cite{simmons-topology}
\abx@aux@segm{0}{0}{simmons-topology}
\abx@aux@cite{simmons-topology}
\abx@aux@segm{0}{0}{simmons-topology}
\newlabel{Maximal ideal closed}{{2.34}{14}{}{theorem.2.34}{}}
\newlabel{Maximal ideal closed@cref}{{[proposition][34][2]2.34}{[1][14][]14}}
\newlabel{radical is a two sided ideal}{{2.35}{14}{}{theorem.2.35}{}}
\newlabel{radical is a two sided ideal@cref}{{[proposition][35][2]2.35}{[1][14][]14}}
\newlabel{A/I is a banach algebra}{{2.36}{14}{}{theorem.2.36}{}}
\newlabel{A/I is a banach algebra@cref}{{[proposition][36][2]2.36}{[1][14][]14}}
\abx@aux@cite{artin-algebra}
\abx@aux@segm{0}{0}{artin-algebra}
\abx@aux@cite{simmons-topology}
\abx@aux@segm{0}{0}{simmons-topology}
\newlabel{Correspondace theorem}{{2.37}{15}{}{theorem.2.37}{}}
\newlabel{Correspondace theorem@cref}{{[proposition][37][2]2.37}{[1][15][]15}}
\abx@aux@cite{simmons-topology}
\abx@aux@segm{0}{0}{simmons-topology}
\@writefile{toc}{\defcounter {refsection}{0}\relax }\@writefile{toc}{\contentsline {chapter}{\numberline {Chapter 3}The Gelfand Mapping}{17}{chapter.3}\protected@file@percent }
\@writefile{lof}{\defcounter {refsection}{0}\relax }\@writefile{lof}{\addvspace {10\p@ }}
\@writefile{lot}{\defcounter {refsection}{0}\relax }\@writefile{lot}{\addvspace {10\p@ }}
\newlabel{Gelfand mapping first form}{{3.1}{17}{}{theorem.3.1}{}}
\newlabel{Gelfand mapping first form@cref}{{[proposition][1][3]3.1}{[1][17][]17}}
\abx@aux@cite{simmons-topology}
\abx@aux@segm{0}{0}{simmons-topology}
\newlabel{Gelfand mapping}{{3.4}{18}{}{theorem.3.4}{}}
\newlabel{Gelfand mapping@cref}{{[proposition][4][3]3.4}{[1][18][]18}}
\abx@aux@cite{simmons-topology}
\abx@aux@segm{0}{0}{simmons-topology}
\abx@aux@cite{simmons-topology}
\abx@aux@segm{0}{0}{simmons-topology}
\abx@aux@cite{simmons-topology}
\abx@aux@segm{0}{0}{simmons-topology}
\abx@aux@cite{simmons-topology}
\abx@aux@segm{0}{0}{simmons-topology}
\newlabel{maximal ideal space to multiplicative functionals}{{3.8}{20}{}{theorem.3.8}{}}
\newlabel{maximal ideal space to multiplicative functionals@cref}{{[proposition][8][3]3.8}{[1][20][]20}}
\newlabel{Maximal ideal is a subspace of S*}{{3.9}{20}{}{theorem.3.9}{}}
\newlabel{Maximal ideal is a subspace of S*@cref}{{[proposition][9][3]3.9}{[1][20][]20}}
\abx@aux@cite{simmons-topology}
\abx@aux@segm{0}{0}{simmons-topology}
\abx@aux@cite{simmons-topology}
\abx@aux@segm{0}{0}{simmons-topology}
\newlabel{applications of the spectral radius formula}{{3.11}{21}{}{theorem.3.11}{}}
\newlabel{applications of the spectral radius formula@cref}{{[proposition][11][3]3.11}{[1][21][]21}}
\abx@aux@cite{simmons-topology}
\abx@aux@segm{0}{0}{simmons-topology}
\abx@aux@cite{simmons-topology}
\abx@aux@segm{0}{0}{simmons-topology}
\newlabel{self adjoint banach algebra}{{3.12}{22}{Self-adjoint Banach algebra}{theorem.3.12}{}}
\newlabel{self adjoint banach algebra@cref}{{[definition][12][3]3.12}{[1][22][]22}}
\newlabel{Closure of algebra lemma}{{3.13}{22}{}{theorem.3.13}{}}
\newlabel{Closure of algebra lemma@cref}{{[lemma][13][3]3.13}{[1][22][]22}}
\newlabel{A dense in CM}{{3.14}{22}{}{theorem.3.14}{}}
\newlabel{A dense in CM@cref}{{[proposition][14][3]3.14}{[1][22][]22}}
\abx@aux@cite{simmons-topology}
\abx@aux@segm{0}{0}{simmons-topology}
\abx@aux@cite{simmons-topology}
\abx@aux@segm{0}{0}{simmons-topology}
\newlabel{isometric isomorphis of A onto CM}{{3.15}{23}{}{theorem.3.15}{}}
\newlabel{isometric isomorphis of A onto CM@cref}{{[proposition][15][3]3.15}{[1][23][]23}}
\abx@aux@cite{simmons-topology}
\abx@aux@segm{0}{0}{simmons-topology}
\abx@aux@cite{simmons-topology}
\abx@aux@segm{0}{0}{simmons-topology}
\abx@aux@cite{simmons-topology}
\abx@aux@segm{0}{0}{simmons-topology}
\abx@aux@cite{rudin-functional}
\abx@aux@segm{0}{0}{rudin-functional}
\newlabel{normal element of B*algebra}{{3.25}{24}{}{theorem.3.25}{}}
\newlabel{normal element of B*algebra@cref}{{[proposition][25][3]3.25}{[1][24][]24}}
\abx@aux@cite{simmons-topology}
\abx@aux@segm{0}{0}{simmons-topology}
\abx@aux@cite{rudin-functional}
\abx@aux@segm{0}{0}{rudin-functional}
\newlabel{unique self adjoint representation}{{3.26}{25}{}{theorem.3.26}{}}
\newlabel{unique self adjoint representation@cref}{{[lemma][26][3]3.26}{[1][24][]25}}
\abx@aux@refcontextdefaultsdone
\abx@aux@defaultrefcontext{0}{artin-algebra}{nty/global//global/global}
\abx@aux@defaultrefcontext{0}{bachman-narici-functional-Analysis}{nty/global//global/global}
\abx@aux@defaultrefcontext{0}{dummit-foote}{nty/global//global/global}
\abx@aux@defaultrefcontext{0}{rudin-functional}{nty/global//global/global}
\abx@aux@defaultrefcontext{0}{simmons-topology}{nty/global//global/global}
\@writefile{toc}{\defcounter {refsection}{0}\relax }\@writefile{toc}{\contentsline {chapter}{References}{27}{theorem.3.27}\protected@file@percent }
